\relax 
\catcode `"\active 
\select@language{russian}
\@writefile{toc}{\select@language{russian}}
\@writefile{lof}{\select@language{russian}}
\@writefile{lot}{\select@language{russian}}
\@writefile{toc}{\contentsline {section}{\numberline {1}\IeC {\CYRV }\IeC {\cyrv }\IeC {\cyre }\IeC {\cyrd }\IeC {\cyre }\IeC {\cyrn }\IeC {\cyri }\IeC {\cyre }}{2}}
\@writefile{toc}{\contentsline {section}{\numberline {2}\IeC {\CYRO }\IeC {\cyrs }\IeC {\cyrn }\IeC {\cyro }\IeC {\cyrv }\IeC {\cyrery } \IeC {\cyru }\IeC {\cyrp }\IeC {\cyrr }\IeC {\cyra }\IeC {\cyrv }\IeC {\cyrl }\IeC {\cyre }\IeC {\cyrn }\IeC {\cyri }\IeC {\cyrya } \IeC {\cyrp }\IeC {\cyrr }\IeC {\cyro }\IeC {\cyre }\IeC {\cyrk }\IeC {\cyrt }\IeC {\cyra }\IeC {\cyrm }\IeC {\cyri }}{2}}
\@writefile{toc}{\contentsline {subsection}{\numberline {2.1}\IeC {\CYRI }\IeC {\cyrs }\IeC {\cyrp }\IeC {\cyro }\IeC {\cyrl }\IeC {\cyrsftsn }\IeC {\cyrz }\IeC {\cyro }\IeC {\cyrv }\IeC {\cyra }\IeC {\cyrn }\IeC {\cyri }\IeC {\cyre } \IeC {\cyrm }\IeC {\cyra }\IeC {\cyrt }\IeC {\cyre }\IeC {\cyrm }\IeC {\cyra }\IeC {\cyrt }\IeC {\cyri }\IeC {\cyrch }\IeC {\cyre }\IeC {\cyrs }\IeC {\cyrk }\IeC {\cyri }\IeC {\cyrh } \IeC {\cyrm }\IeC {\cyre }\IeC {\cyrt }\IeC {\cyro }\IeC {\cyrd }\IeC {\cyro }\IeC {\cyrv } \IeC {\cyri } \IeC {\cyrm }\IeC {\cyro }\IeC {\cyrd }\IeC {\cyre }\IeC {\cyrl }\IeC {\cyre }\IeC {\cyrishrt } \IeC {\cyrv } \IeC {\cyru }\IeC {\cyrp }\IeC {\cyrr }\IeC {\cyra }\IeC {\cyrv }\IeC {\cyrl }\IeC {\cyre }\IeC {\cyrn }\IeC {\cyri }\IeC {\cyri } \IeC {\cyrp }\IeC {\cyrr }\IeC {\cyro }\IeC {\cyre }\IeC {\cyrk }\IeC {\cyrt }\IeC {\cyra }\IeC {\cyrm }\IeC {\cyri }}{2}}
\@writefile{toc}{\contentsline {subsection}{\numberline {2.2}\IeC {\CYRP }\IeC {\cyro }\IeC {\cyrs }\IeC {\cyrt }\IeC {\cyra }\IeC {\cyrn }\IeC {\cyro }\IeC {\cyrv }\IeC {\cyrk }\IeC {\cyra } \IeC {\cyrz }\IeC {\cyra }\IeC {\cyrd }\IeC {\cyra }\IeC {\cyrch }\IeC {\cyri }}{2}}
\@writefile{toc}{\contentsline {subsubsection}{\numberline {2.2.1}\IeC {\CYRM }\IeC {\cyro }\IeC {\cyrd }\IeC {\cyre }\IeC {\cyrl }\IeC {\cyrsftsn } \IeC {\cyrs }\IeC {\cyre }\IeC {\cyrt }\IeC {\cyre }\IeC {\cyrv }\IeC {\cyro }\IeC {\cyrg }\IeC {\cyro } \IeC {\cyrp }\IeC {\cyrl }\IeC {\cyra }\IeC {\cyrn }\IeC {\cyri }\IeC {\cyrr }\IeC {\cyro }\IeC {\cyrv }\IeC {\cyra }\IeC {\cyrn }\IeC {\cyri }\IeC {\cyrya } \IeC {\cyru }\IeC {\cyrp }\IeC {\cyrr }\IeC {\cyra }\IeC {\cyrv }\IeC {\cyrl }\IeC {\cyre }\IeC {\cyrn }\IeC {\cyri }\IeC {\cyrya }}{3}}
